<svg width="24" height="24" viewBox="0 0 24 24" fill="none" xmlns="http://www.w3.org/2000/svg">
<path d="M5.20396 3.27252V5.29596H3.27232V7.02057H5.20396V8.92877H7.52427V7.02057H20.7274V5.29596H7.52427V3.27252H5.20396ZM15.2391 9.28229V11.1436H3.27232V12.8702H15.2391V14.9385H17.5575V12.8702H20.7274V11.1436H17.5575V9.28229H15.2391ZM11.4618 15.0714V16.9932H3.27232V18.7198H11.4618V20.7276H13.7821V18.7198H20.7274V16.9932H13.7821V15.0714H11.4618Z" fill="#434343"/>
</svg>
