<svg width="24" height="24" viewBox="0 0 24 24" fill="none" xmlns="http://www.w3.org/2000/svg">
<path d="M6.03954 7.11687V16.8832H8.51421V7.11687H6.03954ZM15.4858 7.11687V16.8832H17.9605V7.11687H15.4858ZM3.87754 8.59675V15.4033H5.55061V8.59675H3.87754ZM18.4511 8.59675V15.4033H20.1225V8.59675H18.4511ZM9.00315 10.8142V13.1842H14.9969V10.8142H9.00315Z" fill="#434343"/>
</svg>
