<?xml version="1.0" encoding="UTF-8" standalone="no"?>
<svg
   xmlns:dc="http://purl.org/dc/elements/1.1/"
   xmlns:cc="http://creativecommons.org/ns#"
   xmlns:rdf="http://www.w3.org/1999/02/22-rdf-syntax-ns#"
   xmlns:svg="http://www.w3.org/2000/svg"
   xmlns="http://www.w3.org/2000/svg"
   id="svg4118"
   viewBox="0 0 1.77114700062 1.30856198896"
   height="1.30856198896mm"
   width="1.77114700062mm"
   version="1.1">
  <defs
     id="defs35" />
  <metadata
     id="metadata4115">
    <rdf:RDF>
      <cc:Work
         rdf:about="">
        <dc:format>image/svg+xml</dc:format>
        <dc:type
           rdf:resource="http://purl.org/dc/dcmitype/StillImage" />
        <dc:title />
      </cc:Work>
    </rdf:RDF>
  </metadata>
  <g
     id="g32"
     transform="translate(-80.516846,-16.567221)">
    <path
       id="arrow-option"
       d="m 80.516846,16.567221 0.885579,1.308562 0.885568,-1.308562 z"
       style="color:#000000;display:inline;overflow:visible;visibility:visible;fill:#6897a5;fill-opacity:1;fill-rule:nonzero;stroke:none;stroke-width:0.38162869px;marker:none;enable-background:accumulate" />
  </g>
</svg>
