<?xml version="1.0" encoding="UTF-8" standalone="no"?>
<svg
   xmlns:dc="http://purl.org/dc/elements/1.1/"
   xmlns:cc="http://creativecommons.org/ns#"
   xmlns:rdf="http://www.w3.org/1999/02/22-rdf-syntax-ns#"
   xmlns:svg="http://www.w3.org/2000/svg"
   xmlns="http://www.w3.org/2000/svg"
   id="svg4118"
   viewBox="0 0 7.04492098125 7.04492071667"
   height="7.04492071667mm"
   width="7.04492098125mm"
   version="1.1">
  <defs
     id="defs12" />
  <metadata
     id="metadata4115">
    <rdf:RDF>
      <cc:Work
         rdf:about="">
        <dc:format>image/svg+xml</dc:format>
        <dc:type
           rdf:resource="http://purl.org/dc/dcmitype/StillImage" />
        <dc:title />
      </cc:Work>
    </rdf:RDF>
  </metadata>
  <g
     id="g9"
     transform="matrix(1.000000,0.000000,0.000000,1.000000,-166.949414,-14.747020)">
    <g
       transform="matrix(0.15436746,0,0,0.15821192,147.06933,-15.236089)"
       id="blinded"
       style="stroke-width:4.09637451">
      <g
         transform="translate(-1.7139802,1.9573275)"
         id="g1017">
        <path
           style="color:#000000;font-style:normal;font-variant:normal;font-weight:normal;font-stretch:normal;font-size:medium;line-height:normal;font-family:sans-serif;text-indent:0;text-align:start;text-decoration:none;text-decoration-line:none;text-decoration-style:solid;text-decoration-color:#000000;letter-spacing:normal;word-spacing:normal;text-transform:none;writing-mode:lr-tb;direction:ltr;baseline-shift:baseline;text-anchor:start;white-space:normal;clip-rule:nonzero;display:inline;overflow:visible;visibility:visible;opacity:1;isolation:auto;mix-blend-mode:normal;color-interpolation:sRGB;color-interpolation-filters:linearRGB;solid-color:#000000;solid-opacity:1;fill:#92afb8;fill-opacity:1;fill-rule:nonzero;stroke:none;stroke-width:1.86669004;stroke-linecap:butt;stroke-linejoin:miter;stroke-miterlimit:4;stroke-dasharray:none;stroke-dashoffset:0;stroke-opacity:1;marker:none;color-rendering:auto;image-rendering:auto;shape-rendering:auto;text-rendering:auto;enable-background:accumulate"
           d="m 636.62305,58.861328 -1.73243,1.734375 18.64258,18.642578 1.73242,-1.734375 -3.43554,-3.435547 C 653.13167,72.976617 654.22201,71.604945 654.99023,70 l 0.20118,-0.416016 -0.20118,-0.417968 c -2.01163,-4.185194 -6.17055,-6.840742 -10.72265,-6.84375 h -0.002 c -1.23923,0.0017 -2.44056,0.222777 -3.58593,0.595703 z m 7.64257,5.351563 h 0.002 c 3.69491,0.0032 7.05873,2.080024 8.83203,5.373047 -0.66466,1.239024 -1.56221,2.294337 -2.61328,3.138671 l -1.89453,-1.894531 c 0.10914,-0.395793 0.18548,-0.805929 0.18554,-1.238281 -3.8e-4,-2.554454 -2.01933,-4.624861 -4.51172,-4.625 -0.46051,2.5e-5 -0.89602,0.09094 -1.31445,0.222656 l -0.74023,-0.740234 c 0.66693,-0.148261 1.35336,-0.235206 2.05468,-0.236328 z m -7.44726,0.796875 c -1.35516,1.108607 -2.48544,2.519291 -3.27734,4.173828 l -0.20118,0.417968 0.20118,0.417969 c 2.01171,4.185066 6.17259,6.838853 10.7246,6.841797 h 0.002 c 1.30215,-0.0018 2.56916,-0.227327 3.76562,-0.636719 l -1.53515,-1.535156 c -0.72455,0.170799 -1.46834,0.280038 -2.23243,0.28125 -3.69553,-0.0021 -7.06031,-2.077687 -8.83398,-5.371094 0.69037,-1.287078 1.62926,-2.380394 2.73047,-3.246093 z m 3.16992,3.169922 c -0.14086,0.447653 -0.23625,0.916412 -0.23633,1.412109 3.8e-4,2.554464 2.0213,4.624851 4.51367,4.625 0.5225,-3.1e-5 1.01572,-0.109959 1.48243,-0.277344 z"
           transform="matrix(1.7139838,0,0,1.672335,-951.00837,94.344449)"
           id="path951" />
        <g
           id="g1009"
           transform="translate(-0.69652402,-1.1326271)" />
      </g>
      <rect
         y="189.51233"
         x="128.78416"
         height="44.528381"
         width="45.637344"
         id="rect1011"
         style="opacity:1;vector-effect:none;fill:none;fill-opacity:1;stroke:none;stroke-width:1.37069404;stroke-linecap:butt;stroke-linejoin:round;stroke-miterlimit:4;stroke-dasharray:none;stroke-dashoffset:0;stroke-opacity:1;paint-order:stroke fill markers" />
    </g>
  </g>
</svg>
