<?xml version="1.0" encoding="UTF-8" standalone="no"?>
<svg
   xmlns:dc="http://purl.org/dc/elements/1.1/"
   xmlns:cc="http://creativecommons.org/ns#"
   xmlns:rdf="http://www.w3.org/1999/02/22-rdf-syntax-ns#"
   xmlns:svg="http://www.w3.org/2000/svg"
   xmlns="http://www.w3.org/2000/svg"
   id="svg4118"
   viewBox="0 0 6.77333306875 6.77333306875"
   height="6.77333306875mm"
   width="6.77333306875mm"
   version="1.1">
  <defs
     id="defs130" />
  <metadata
     id="metadata4115">
    <rdf:RDF>
      <cc:Work
         rdf:about="">
        <dc:format>image/svg+xml</dc:format>
        <dc:type
           rdf:resource="http://purl.org/dc/dcmitype/StillImage" />
        <dc:title />
      </cc:Work>
    </rdf:RDF>
  </metadata>
  <g
     id="g127"
     transform="matrix(1.000000,0.000000,0.000000,1.000000,-40.990610,-37.164259)">
    <g
       transform="translate(-15.591151,-9.7588169)"
       id="colision">
      <path
         id="path12860"
         d="m 59.275042,48.084475 -0.325096,0.144015 0.429087,1.054706 0.249054,-0.110278 z m 1.283845,0 -0.352926,1.088443 0.24893,0.110278 0.429099,-1.054706 z m -2.480574,0.983777 v 0.721845 h -1.22495 v 1.057906 h 1.22495 v 0.690266 l 1.672179,-1.235009 z m 3.687752,0 -1.672186,1.235008 1.672186,1.235009 v -0.690266 h 1.224943 v -1.057906 h -1.224943 z m -2.387032,2.26804 -0.429087,1.054705 0.325096,0.144015 0.353045,-1.088441 z m 1.075858,0 -0.24893,0.110279 0.352926,1.088441 0.325103,-0.144015 z"
         style="color:#000000;clip-rule:nonzero;display:inline;overflow:visible;visibility:visible;opacity:1;isolation:auto;mix-blend-mode:normal;color-interpolation:sRGB;color-interpolation-filters:linearRGB;solid-color:#000000;solid-opacity:1;fill:#434343;fill-opacity:1;fill-rule:nonzero;stroke:none;stroke-width:1.77844489;stroke-linecap:butt;stroke-linejoin:miter;stroke-miterlimit:4;stroke-dasharray:none;stroke-dashoffset:0;stroke-opacity:1;marker:none;paint-order:normal;color-rendering:auto;image-rendering:auto;shape-rendering:auto;text-rendering:auto;enable-background:accumulate" />
      <rect
         y="46.923077"
         x="56.58176"
         height="6.7733331"
         width="6.7733331"
         id="rect18592"
         style="color:#000000;clip-rule:nonzero;display:inline;overflow:visible;visibility:visible;opacity:1;isolation:auto;mix-blend-mode:normal;color-interpolation:sRGB;color-interpolation-filters:linearRGB;solid-color:#000000;solid-opacity:1;fill:none;fill-opacity:1;fill-rule:nonzero;stroke:none;stroke-width:1.79189885;stroke-linecap:butt;stroke-linejoin:miter;stroke-miterlimit:4;stroke-dasharray:none;stroke-dashoffset:0;stroke-opacity:1;marker:none;paint-order:stroke fill markers;color-rendering:auto;image-rendering:auto;shape-rendering:auto;text-rendering:auto;enable-background:accumulate" />
    </g>
  </g>
</svg>
