<?xml version="1.0" encoding="UTF-8" standalone="no"?>
<svg
   xmlns:dc="http://purl.org/dc/elements/1.1/"
   xmlns:cc="http://creativecommons.org/ns#"
   xmlns:rdf="http://www.w3.org/1999/02/22-rdf-syntax-ns#"
   xmlns:svg="http://www.w3.org/2000/svg"
   xmlns="http://www.w3.org/2000/svg"
   id="svg4118"
   viewBox="0 0 13.9623731208 13.9623839687"
   height="13.9623839687mm"
   width="13.9623731208mm"
   version="1.1">
  <defs
     id="defs63" />
  <metadata
     id="metadata4115">
    <rdf:RDF>
      <cc:Work
         rdf:about="">
        <dc:format>image/svg+xml</dc:format>
        <dc:type
           rdf:resource="http://purl.org/dc/dcmitype/StillImage" />
        <dc:title />
      </cc:Work>
    </rdf:RDF>
  </metadata>
  <g
     id="g60"
     transform="translate(-38.020969,-103.20503)">
    <g
       style="display:inline"
       transform="matrix(1.0666801,0,0,1.0666801,-550.86233,-22.99438)"
       id="explanable-white">
      <path
         style="color:#000000;display:inline;overflow:visible;visibility:visible;fill:none;fill-opacity:1;fill-rule:nonzero;stroke:none;stroke-width:0.52916664;marker:none;enable-background:accumulate"
         d="m 565.1607,124.85524 a 6.5447811,6.5447811 0 0 1 -6.54478,6.54479 6.5447811,6.5447811 0 0 1 -6.54478,-6.54479 6.5447811,6.5447811 0 0 1 6.54478,-6.54478 6.5447811,6.5447811 0 0 1 6.54478,6.54478 z"
         id="path9392" />
      <path
         style="fill:#ffffff;fill-opacity:1;stroke-width:1.0878489"
         d="m 558.24591,129.12857 c -1.54434,-1.12446 -2.39903,-2.15937 -2.79889,-3.38899 -0.21594,-0.6641 -0.2858,-1.22099 -0.32927,-2.62538 -0.0287,-0.92842 -0.0279,-1.11867 0.005,-1.13902 0.0218,-0.0134 0.11376,-0.0335 0.20446,-0.0445 0.28927,-0.0352 1.02678,-0.19259 1.46659,-0.31317 0.72834,-0.19972 1.34992,-0.4447 1.68922,-0.66578 l 0.1326,-0.0864 0.16041,0.10232 c 0.34621,0.22102 0.93134,0.44961 1.66773,0.65152 0.44057,0.1208 1.16298,0.27478 1.46027,0.31123 0.0908,0.0112 0.18282,0.0312 0.20473,0.0449 0.0333,0.0205 0.034,0.20694 0.005,1.13901 -0.035,1.12059 -0.0761,1.5859 -0.18487,2.08776 -0.3387,1.56328 -1.28083,2.76952 -3.22633,4.13079 l -0.0898,0.0629 z m 0.97381,-1.09471 c 1.16628,-0.96201 1.79983,-1.93062 2.04773,-3.13078 0.0794,-0.38444 0.12929,-0.99399 0.13681,-1.6719 0.006,-0.5355 10e-6,-0.64774 -0.0353,-0.66625 -0.0233,-0.0123 -0.12858,-0.0384 -0.23393,-0.058 -0.78548,-0.14684 -2.10497,-0.57238 -2.43982,-0.78685 -0.0625,-0.04 -0.0855,-0.035 -0.29468,0.0646 -0.60411,0.28712 -1.52633,0.57211 -2.42224,0.74852 l -0.16206,0.032 0.0188,0.8172 c 0.0217,0.94023 0.0512,1.2178 0.18931,1.77566 0.29734,1.20126 0.98508,2.10836 2.47252,3.26116 l 0.11701,0.0907 0.17765,-0.13459 c 0.0977,-0.0739 0.29037,-0.22757 0.42813,-0.3412 z m -1.84168,-2.37592 -0.70684,-0.7073 0.34605,-0.34604 0.34604,-0.34605 0.36081,0.3608 0.3608,0.36081 0.8845,-0.88414 0.88448,-0.88414 0.34578,0.34666 0.34576,0.34668 -1.23028,1.22999 -1.23027,1.23002 z"
         id="path9394" />
    </g>
  </g>
</svg>
