<?xml version="1.0" encoding="UTF-8" standalone="no"?>
<svg
   xmlns:dc="http://purl.org/dc/elements/1.1/"
   xmlns:cc="http://creativecommons.org/ns#"
   xmlns:rdf="http://www.w3.org/1999/02/22-rdf-syntax-ns#"
   xmlns:svg="http://www.w3.org/2000/svg"
   xmlns="http://www.w3.org/2000/svg"
   id="svg4118"
   viewBox="0 0 4.90204045625 4.90204045625"
   height="4.90204045625mm"
   width="4.90204045625mm"
   version="1.1">
  <defs
     id="defs20" />
  <metadata
     id="metadata4115">
    <rdf:RDF>
      <cc:Work
         rdf:about="">
        <dc:format>image/svg+xml</dc:format>
        <dc:type
           rdf:resource="http://purl.org/dc/dcmitype/StillImage" />
        <dc:title />
      </cc:Work>
    </rdf:RDF>
  </metadata>
  <g
     id="g17"
     transform="matrix(1.000000,0.000000,0.000000,1.000000,-113.451553,-50.694751)">
    <g
       id="star-off">
      <path
         id="star-off-path"
         d="m 115.89947,51.222393 a 0.15666557,0.15666557 0 0 0 -0.14667,0.111677 l -0.35904,1.195626 -1.24731,-0.02868 a 0.15666557,0.15666557 0 0 0 -0.0924,0.285472 l 1.0255,0.710797 -0.41125,1.177368 a 0.15666557,0.15666557 0 0 0 0.24267,0.176391 l 0.9921,-0.757243 0.99209,0.757243 a 0.15666557,0.15666557 0 0 0 0.24268,-0.176391 l -0.41176,-1.177368 1.02499,-0.710797 a 0.15666557,0.15666557 0 0 0 -0.0929,-0.285472 l -1.24573,0.02868 -0.35906,-1.195626 a 0.15666557,0.15666557 0 0 0 -0.15393,-0.111677 z"
         style="color:#000000;display:inline;overflow:visible;visibility:visible;opacity:1;fill:#527b89;fill-opacity:0.27439025;fill-rule:nonzero;stroke:none;stroke-width:1.68379986;stroke-linecap:butt;stroke-linejoin:miter;stroke-miterlimit:4;stroke-dasharray:none;stroke-dashoffset:0;stroke-opacity:1;marker:none;enable-background:accumulate" />
      <rect
         y="50.694752"
         x="113.45155"
         height="4.9020405"
         width="4.9020405"
         id="rect5069"
         style="opacity:1;vector-effect:none;fill:none;fill-opacity:0;stroke:none;stroke-width:0.21420914;stroke-linecap:butt;stroke-linejoin:round;stroke-miterlimit:4;stroke-dasharray:none;stroke-dashoffset:0;stroke-opacity:1;paint-order:stroke fill markers" />
    </g>
  </g>
</svg>
